{
  "_date": {
    "create": "2017-12-13 12:00",
    "update": "2017-12-14 12:00"
  },
  "author": [
    "Michael Becker",
    "Lorem Ipsum"
  ],
  "head": {
    "title": "About | New Flood\\Canal Project",
    "author": "You"
  },
  "meta": {
    "lang": "en",
    "description": "This is the meta description content."
  },
  "_schema": "meta",
  "_page-type": "default",
  "_doc-tree": true
}