{
  "main_content": {
    "children": [
      {
        "type": "content",
        "id": "intro",
        "data": {
          "intro": "<h1>Block text<\/h1>\n<p>with more text<\/p>",
          "intro_slogan": "<p>Just some <em>inline<\/em> text.<\/p>",
          "headline": "Welcome to this page."
        }
      },
      {
        "type": "mainText"
      }
    ]
  },
  "footer": {
    "children": []
  }
}