{
  "_date": {
    "create": "2017-12-13 12:00",
    "update": "2018-05-01 00:11"
  },
  "author": {
    "mb": "Michael Becker"
  },
  "head": {
    "title": "SocialMedia | New Flood\\Canal Project",
    "author": "You",
    "font": "https://fonts.googleapis.com/css?family=Barlow"
  },
  "meta": {
    "lang": "en",
    "description": "This is the meta description content."
  }
}