{
  "anonym": true,
  "authenticated": false,
  "user": {
  },
  "group": {
  },
  "value": {
    "contact": {
      "anonym": true,
      "authenticated": true,
      "user": {
      },
      "group": {
      }
    },
    "api": {
      "anonym": false,
      "authenticated": true,
      "user": {
      },
      "group": {
      }
    },
    "api-admin": {
      "anonym": false,
      "authenticated": true,
      "user": {
      },
      "group": {
      }
    }
  }
}